{
  "name": "monsterweek",
  "title": "Monster/Week",
  "description": "A simple system for Monster of the Week.",
  "version": "1.1.0",
  "minimumCoreVersion": "0.7.0",
  "compatibleCoreVersion": "0.7.9",
  "templateVersion": 1,
  "author": "Dave Bort <git@dbort.com>",
  "esmodules": ["module/simple.js"],
  "styles": ["styles/simple.css"],
  "packs": [],
  "languages": [
    {
      "lang": "en",
      "name": "English",
      "path": "lang/en.json"
    },
    {
      "lang": "pt-BR",
      "name": "Português (Brasil)",
      "path": "lang/pt-BR.json"
    }
  ],
  "gridDistance": 5,
  "gridUnits": "ft",
  "primaryTokenAttribute": "harm",
  "url": "https://gitlab.com/3cell/monsterweek/",
  "manifest": "https://gitlab.com/3cell/monsterweek/-/raw/motw/system.json",
  "download": "https://gitlab.com/3cell/monsterweek/-/archive/v1.1.0/monsterweek-v1.1.0.zip",
  "license": "LICENSE.txt"
}
